lab2/lab 2/simulation/qsim/lab2.msim.vcd
$comment
	File created using the following command:
		vcd file lab2.msim.vcd -direction
$end
$date
	Mon Sep 21 23:20:26 2020
$end
$version
	ModelSim Version 10.5b
$end
$timescale
	1ps
$end

$scope module Block9_vlg_vec_tst $end
$var reg 1 ! CLK $end
$var reg 1 " CLR $end
$var reg 1 # DIN0 $end
$var reg 1 $ DIN1 $end
$var reg 1 % FETCH $end
$var reg 1 & LDSBR $end
$var reg 1 ' SAR0 $end
$var reg 1 ( SAR1 $end
$var reg 1 ) STORE $end
$var wire 1 * QA0 $end
$var wire 1 + QA1 $end
$var wire 1 , QB0 $end
$var wire 1 - QB1 $end
$var wire 1 . QC0 $end
$var wire 1 / QC1 $end
$var wire 1 0 QD0 $end
$var wire 1 1 QD1 $end
$var wire 1 2 SBR0 $end
$var wire 1 3 SBR1 $end

$scope module i1 $end
$var wire 1 4 gnd $end
$var wire 1 5 vcc $end
$var wire 1 6 unknown $end
$var tri1 1 7 devclrn $end
$var tri1 1 8 devpor $end
$var tri1 1 9 devoe $end
$var wire 1 : SBR1~output_o $end
$var wire 1 ; SBR0~output_o $end
$var wire 1 < QA1~output_o $end
$var wire 1 = QB1~output_o $end
$var wire 1 > QC1~output_o $end
$var wire 1 ? QD1~output_o $end
$var wire 1 @ QA0~output_o $end
$var wire 1 A QB0~output_o $end
$var wire 1 B QC0~output_o $end
$var wire 1 C QD0~output_o $end
$var wire 1 D CLK~input_o $end
$var wire 1 E CLK~inputclkctrl_outclk $end
$var wire 1 F LDSBR~input_o $end
$var wire 1 G DIN1~input_o $end
$var wire 1 H FETCH~input_o $end
$var wire 1 I STORE~input_o $end
$var wire 1 J SAR1~input_o $end
$var wire 1 K SAR0~input_o $end
$var wire 1 L inst|inst3|inst99|inst|9~0_combout $end
$var wire 1 M CLR~input_o $end
$var wire 1 N CLR~inputclkctrl_outclk $end
$var wire 1 O inst|inst3|inst99|inst|9~q $end
$var wire 1 P inst|inst3|inst99|inst|10~0_combout $end
$var wire 1 Q inst|inst3|inst99|inst|10~q $end
$var wire 1 R inst|inst4|4~0_combout $end
$var wire 1 S inst4|22~0_combout $end
$var wire 1 T inst5|41~q $end
$var wire 1 U inst5|40~feeder_combout $end
$var wire 1 V inst5|40~q $end
$var wire 1 W inst5|39~feeder_combout $end
$var wire 1 X inst5|39~q $end
$var wire 1 Y inst5|38~feeder_combout $end
$var wire 1 Z inst5|38~q $end
$var wire 1 [ inst9|9~0_combout $end
$var wire 1 \ inst9|9~1_combout $end
$var wire 1 ] inst8|9~q $end
$var wire 1 ^ DIN0~input_o $end
$var wire 1 _ inst4|23~0_combout $end
$var wire 1 ` inst110|41~q $end
$var wire 1 a inst110|40~feeder_combout $end
$var wire 1 b inst110|40~q $end
$var wire 1 c inst110|39~feeder_combout $end
$var wire 1 d inst110|39~q $end
$var wire 1 e inst110|38~feeder_combout $end
$var wire 1 f inst110|38~q $end
$var wire 1 g inst9|10~0_combout $end
$var wire 1 h inst9|10~1_combout $end
$var wire 1 i inst8|10~q $end
$upscope $end
$upscope $end
$enddefinitions $end
#0
$dumpvars
1!
1"
0#
1$
0%
1&
0'
0(
0)
0*
0+
0,
0-
0.
0/
00
01
02
03
04
15
x6
17
18
19
0:
0;
0<
0=
0>
0?
0@
0A
0B
0C
1D
1E
1F
1G
0H
0I
0J
0K
1L
1M
1N
0O
0P
0Q
1R
0S
0T
0U
0V
0W
0X
0Y
0Z
0[
1\
0]
0^
0_
0`
0a
0b
0c
0d
0e
0f
0g
0h
0i
$end
#5000
0!
0D
0E
#10000
1!
1D
1E
1O
1]
1:
0R
1[
13
1P
0L
#15000
0!
0D
0E
#20000
1!
1D
1E
1Q
0O
1L
#25000
0!
0D
0E
#30000
0&
1!
0F
1D
1E
1O
0P
0L
#35000
0!
0D
0E
#40000
0$
1&
1!
0G
1F
1D
1E
0\
0Q
0O
1R
1L
#45000
0!
0D
0E
#50000
1!
1D
1E
1O
0]
0:
0R
0[
03
1P
0L
#55000
0!
0D
0E
#60000
1!
1D
1E
1Q
0O
1L
#65000
0!
0D
0E
#70000
0&
1!
0F
1D
1E
1O
0P
0L
#75000
0!
0D
0E
#80000
1#
1&
1!
1^
1F
1D
1E
1h
0Q
0O
1R
1L
#85000
0!
0D
0E
#90000
1!
1D
1E
1O
1i
1;
0R
1g
12
1P
0L
#95000
0!
0D
0E
#100000
1!
1D
1E
1Q
0O
1L
#105000
0!
0D
0E
#110000
0&
1!
0F
1D
1E
1O
0P
0L
#115000
0!
0D
0E
#120000
1$
1&
1!
1G
1F
1D
1E
1\
0Q
0O
1R
1L
#125000
0!
0D
0E
#130000
1!
1D
1E
1O
1]
1:
0R
1[
13
1P
0L
#135000
0!
0D
0E
#140000
1!
1D
1E
1Q
0O
1L
#145000
0!
0D
0E
#150000
0&
1!
0F
1D
1E
1O
0P
0L
#155000
0!
0D
0E
#160000
0#
0$
1!
0^
0G
1D
1E
0Q
0O
1R
1L
#165000
0!
0D
0E
#170000
1!
1D
1E
1O
0R
1P
0L
#175000
0!
0D
0E
#180000
1!
1D
1E
1Q
0O
1L
#185000
0!
0D
0E
#190000
1'
1(
1!
1K
1J
1D
1E
1O
1R
0P
0L
#195000
0!
0D
0E
#200000
1)
1!
1I
1D
1E
1_
1S
0Q
0O
0R
1L
0_
0S
#205000
0!
0D
0E
#210000
1!
1D
1E
1O
1P
0L
#215000
0!
0D
0E
#220000
1!
1D
1E
1Q
0O
1L
#225000
0!
0D
0E
#230000
1!
1D
1E
1O
1R
0P
0L
1_
1S
#235000
0!
0D
0E
#240000
0)
1!
0I
1D
1E
0_
0S
0Q
0O
1`
1T
1<
1@
0R
1*
1+
1L
1a
1U
#245000
0!
0D
0E
#250000
1&
1#
1!
1F
1^
1D
1E
0\
1O
1b
0`
1V
0T
0<
1=
0@
1A
1,
0*
1-
0+
1P
0L
1c
0a
1W
0U
#255000
0!
0D
0E
#260000
1!
1D
1E
1Q
0O
1d
0b
0]
1X
0V
0=
1>
0:
0A
1B
0[
1.
0,
03
1/
0-
1L
1e
0c
1Y
0W
#265000
0!
0D
0E
#270000
1!
1D
1E
1O
1f
0d
1Z
0X
0>
1?
0B
1C
1R
10
0.
11
0/
0P
0L
1_
0e
1S
0Y
#275000
0!
0D
0E
#280000
0(
0&
1!
0J
0F
1D
1E
0R
0Q
0O
0f
1`
0Z
1T
1<
0?
1@
0C
00
1*
01
1+
1L
0_
1a
0S
1U
#285000
0!
0D
0E
#290000
1)
0#
1!
1I
0^
1D
1E
1O
1b
0`
1V
0T
0<
1=
0@
1A
1R
1,
0*
1-
0+
1P
0L
1c
0a
1W
0U
1_
#295000
0!
0D
0E
#300000
1!
1D
1E
1Q
0O
1d
0b
1`
1X
0V
0=
1>
1@
0A
1B
0R
1.
0,
1*
1/
0-
1L
1e
0c
1a
1Y
0W
0_
#305000
0!
0D
0E
#310000
1!
1D
1E
1O
1f
0d
1b
0`
1Z
0X
0>
1?
0@
1A
0B
1C
10
0.
1,
0*
11
0/
0P
0L
1_
0e
1c
0a
1S
0Y
#315000
0!
0D
0E
#320000
1!
1D
1E
0Q
0O
0f
1d
0b
1`
0Z
1T
1<
0?
1@
0A
1B
0C
00
1.
0,
1*
01
1+
1L
0_
1e
0c
1a
0S
1U
#325000
0!
0D
0E
#330000
0)
1!
0I
1D
1E
1O
1f
0d
1b
0`
1V
0T
0<
1=
0@
1A
0B
1C
1R
10
0.
1,
0*
1-
0+
1P
0L
1_
0e
1c
0a
1W
0U
#335000
0!
0D
0E
#340000
1&
1!
1F
1D
1E
0h
1Q
0O
0f
1d
0b
1`
1X
0V
0=
1>
1@
0A
1B
0C
0R
00
1.
0,
1*
1/
0-
1L
0_
1e
0c
1a
1Y
0W
#345000
0!
0D
0E
#350000
1!
1D
1E
1O
0i
1f
0d
1b
0`
1Z
0X
0>
1?
0@
1A
0B
1C
0;
0g
02
10
0.
1,
0*
11
0/
0P
0L
1_
0e
1c
0a
1S
0Y
#355000
0!
0D
0E
#360000
1!
1D
1E
0Q
0O
0f
1d
0b
1`
0Z
1T
1<
0?
1@
0A
1B
0C
00
1.
0,
1*
01
1+
1L
0_
1e
0c
1a
0S
1U
#365000
0!
0D
0E
#370000
0'
0&
1!
0K
0F
1D
1E
1R
1O
1f
0d
1b
0`
1V
0T
0<
1=
0@
1A
0B
1C
0R
10
0.
1,
0*
1-
0+
1P
0L
1_
0e
1c
0a
1W
0U
#375000
0!
0D
0E
#380000
1)
1!
1I
1D
1E
1Q
0O
0f
1d
0b
1`
1X
0V
0=
1>
1@
0A
1B
0C
00
1.
0,
1*
1/
0-
1L
0_
1e
0c
1a
1Y
0W
#385000
0!
0D
0E
#390000
1!
1D
1E
1O
1f
0d
1b
0`
1Z
0X
0>
1?
0@
1A
0B
1C
10
0.
1,
0*
11
0/
0P
0L
1_
0e
1c
0a
1S
0Y
#395000
0!
0D
0E
#400000
1!
1D
1E
0Q
0O
0f
1d
0b
1`
0Z
1T
1<
0?
1@
0A
1B
0C
1R
00
1.
0,
1*
01
1+
1L
0_
1e
0c
1a
0S
1U
#405000
0!
0D
0E
#410000
1!
1D
1E
1O
1f
0d
1b
0`
1V
0T
0<
1=
0@
1A
0B
1C
0R
10
0.
1,
0*
1-
0+
1P
0L
0e
1c
0a
1W
0U
1_
#415000
0!
0D
0E
#420000
0)
1!
0I
1D
1E
1Q
0O
0f
1d
0b
1`
1X
0V
0=
1>
1@
0A
1B
0C
00
1.
0,
1*
1/
0-
1L
0_
1e
0c
1a
1Y
0W
#425000
0!
0D
0E
#430000
1$
1&
1!
1G
1F
1D
1E
1\
1O
1f
0d
1b
0`
1Z
0X
0>
1?
0@
1A
0B
1C
10
0.
1,
0*
11
0/
0P
0L
1_
0e
1c
0a
1S
0Y
#435000
0!
0D
0E
#440000
1!
1D
1E
0Q
0O
0f
1d
0b
1`
1]
0Z
1T
1<
0?
1:
1@
0A
1B
0C
1R
1[
00
1.
0,
1*
13
01
1+
1L
0_
1e
0c
1a
0S
1U
#445000
0!
0D
0E
#450000
1!
1D
1E
1O
1f
0d
1b
0`
1V
0T
0<
1=
0@
1A
0B
1C
0R
10
0.
1,
0*
1-
0+
1P
0L
1_
0e
1c
0a
1W
0U
#455000
0!
0D
0E
#460000
1(
0&
1!
1J
0F
1D
1E
1Q
0O
0f
1d
0b
1`
1X
0V
0=
1>
1@
0A
1B
0C
1R
00
1.
0,
1*
1/
0-
1L
0_
1e
0c
1a
1Y
0W
#465000
0!
0D
0E
#470000
1)
0$
1!
1I
0G
1D
1E
1S
1O
1f
0d
1b
0`
1Z
0X
0>
1?
0@
1A
0B
1C
0R
10
0.
1,
0*
11
0/
0P
0L
0e
1c
0a
0Y
1_
#475000
0!
0D
0E
#480000
1!
1D
1E
0Q
0O
0f
1d
0b
1`
0Z
1T
1<
0?
1@
0A
1B
0C
00
1.
0,
1*
01
1+
1L
0_
1e
0c
1a
0S
1U
#485000
0!
0D
0E
#490000
1!
1D
1E
1O
1f
0d
1b
0`
1V
0T
0<
1=
0@
1A
0B
1C
10
0.
1,
0*
1-
0+
1P
0L
1_
0e
1c
0a
1W
0U
#495000
0!
0D
0E
#500000
1!
1D
1E
1Q
0O
0f
1d
0b
1`
1X
0V
0=
1>
1@
0A
1B
0C
1R
00
1.
0,
1*
1/
0-
1L
0_
1e
0c
1a
1Y
0W
1S
#505000
0!
0D
0E
#510000
0)
1!
0I
1D
1E
0S
1O
1f
0d
1b
0`
1Z
0X
1T
1<
0>
1?
0@
1A
0B
1C
0R
10
0.
1,
0*
11
0/
1+
0P
0L
1_
0e
1c
0a
1S
0Y
1U
#515000
0!
0D
0E
#520000
1!
1D
1E
0Q
0O
0f
1d
0b
1`
0Z
1V
1=
0?
1@
0A
1B
0C
00
1.
0,
1*
01
1-
1L
0_
1e
0c
1a
0S
1W
#525000
0!
0D
0E
#530000
1!
1D
1E
1O
1f
0d
1b
0`
1X
0T
0<
1>
0@
1A
0B
1C
10
0.
1,
0*
1/
0+
1P
0L
1_
0e
1c
0a
1Y
0U
#535000
0!
0D
0E
#540000
1!
1D
1E
1Q
0O
0f
1d
0b
1`
1Z
0V
0=
1?
1@
0A
1B
0C
1R
00
1.
0,
1*
11
0-
1L
0_
1e
0c
1a
1S
0W
#545000
0!
0D
0E
#550000
0(
1!
0J
1D
1E
0R
1O
1f
0d
1b
0`
0X
1T
1<
0>
0@
1A
0B
1C
10
0.
1,
0*
0/
1+
0P
0L
1_
0e
1c
0a
0Y
1U
#555000
0!
0D
0E
#560000
1!
1D
1E
0Q
0O
0f
1d
0b
1`
0Z
1V
1=
0?
1@
0A
1B
0C
1R
00
1.
0,
1*
01
1-
1L
0_
1e
0c
1a
0S
1W
#565000
0!
0D
0E
#570000
1!
1D
1E
1O
1f
0d
1b
0`
1X
0T
0<
1>
0@
1A
0B
1C
0R
10
0.
1,
0*
1/
0+
1P
0L
1_
0e
1c
0a
1Y
0U
#575000
0!
0D
0E
#580000
1!
1D
1E
1Q
0O
0f
1d
0b
1`
1Z
0V
0=
1?
1@
0A
1B
0C
00
1.
0,
1*
11
0-
1L
0_
1e
0c
1a
1S
0W
#585000
0!
0D
0E
#590000
1!
1D
1E
1O
1f
0d
1b
0`
0X
1T
1<
0>
0@
1A
0B
1C
10
0.
1,
0*
0/
1+
0P
0L
1_
0e
1c
0a
0Y
1U
#595000
0!
0D
0E
#600000
1!
1D
1E
0Q
0O
0f
1d
0b
1`
0Z
1V
1=
0?
1@
0A
1B
0C
1R
00
1.
0,
1*
01
1-
1L
0_
1e
0c
1a
0S
1W
#605000
0!
0D
0E
#610000
1!
1D
1E
1O
1f
0d
1b
0`
1X
0T
0<
1>
0@
1A
0B
1C
0R
10
0.
1,
0*
1/
0+
1P
0L
1_
0e
1c
0a
1Y
0U
#615000
0!
0D
0E
#620000
1!
1D
1E
1Q
0O
0f
1d
0b
1`
1Z
0V
0=
1?
1@
0A
1B
0C
00
1.
0,
1*
11
0-
1L
0_
1e
0c
1a
1S
0W
#625000
0!
0D
0E
#630000
1'
1(
1!
1K
1J
1D
1E
1O
1f
0d
1b
0`
0X
1T
1<
0>
0@
1A
0B
1C
1R
10
0.
1,
0*
0/
1+
0P
0L
1_
0e
1c
0a
0Y
1U
#635000
0!
0D
0E
#640000
1%
1!
1H
1D
1E
1g
1h
0Q
0O
0f
1d
0b
1`
0Z
1V
1=
0?
1@
0A
1B
0C
0R
0g
0[
00
1.
0,
1*
01
1-
1L
0_
1e
0c
1a
0S
1W
1[
0h
0\
1\
#645000
0!
0D
0E
#650000
1!
1D
1E
1O
1f
0d
1b
0`
1X
0T
0<
1>
0@
1A
0B
1C
10
0.
1,
0*
1/
0+
1P
0L
1_
0e
1c
0a
1Y
0U
#655000
0!
0D
0E
#660000
1!
1D
1E
1Q
0O
0f
1d
0b
1`
1Z
0V
0=
1?
1@
0A
1B
0C
00
1.
0,
1*
11
0-
1L
0_
1e
0c
1a
1S
0W
#665000
0!
0D
0E
#670000
1!
1D
1E
1O
1f
0d
1b
0`
0X
1T
1<
0>
0@
1A
0B
1C
1R
10
0.
1,
0*
0/
1+
0P
0L
1_
0e
1c
0a
0Y
1U
1g
1h
#675000
0!
0D
0E
#680000
0(
0%
1!
0J
0H
1D
1E
0R
0g
0h
0Q
0O
1i
0f
1d
0b
1`
0Z
1V
1=
0?
1@
0A
1B
0C
1;
1g
12
00
1.
0,
1*
01
1-
1L
0_
1e
0c
1a
0S
1W
1h
#685000
0!
0D
0E
#690000
1%
1!
1H
1D
1E
1O
1f
0d
1b
0`
1X
0T
0<
1>
0@
1A
0B
1C
1R
10
0.
1,
0*
1/
0+
1P
0L
1_
0e
1c
0a
1Y
0U
0[
0\
#695000
0!
0D
0E
#700000
1!
1D
1E
1Q
0O
0f
1d
0b
1`
0]
1Z
0V
0=
1?
0:
1@
0A
1B
0C
0R
0g
1[
00
1.
0,
1*
03
11
0-
1L
0_
1e
0c
1a
1S
0W
1g
0[
0h
1\
1h
0\
#705000
0!
0D
0E
#710000
1!
1D
1E
1O
1f
0d
1b
0`
0X
1T
1<
0>
0@
1A
0B
1C
10
0.
1,
0*
0/
1+
0P
0L
1_
0e
1c
0a
0Y
1U
#715000
0!
0D
0E
#720000
1!
1D
1E
0Q
0O
0f
1d
0b
1`
0Z
1V
1=
0?
1@
0A
1B
0C
00
1.
0,
1*
01
1-
1L
0_
1e
0c
1a
0S
1W
#725000
0!
0D
0E
#730000
0'
0%
1!
0K
0H
1D
1E
1R
1O
1f
0d
1b
0`
1X
0T
0<
1>
0@
1A
0B
1C
0R
10
0.
1,
0*
1/
0+
1P
0L
1_
0e
1c
0a
1Y
0U
#735000
0!
0D
0E
#740000
1%
1!
1H
1D
1E
1Q
0O
0f
1d
0b
1`
1Z
0V
0=
1?
1@
0A
1B
0C
00
1.
0,
1*
11
0-
1L
0_
1e
0c
1a
1S
0W
#745000
0!
0D
0E
#750000
1!
1D
1E
1O
1f
0d
1b
0`
0X
1T
1<
0>
0@
1A
0B
1C
10
0.
1,
0*
0/
1+
0P
0L
1_
0e
1c
0a
0Y
1U
#755000
0!
0D
0E
#760000
1!
1D
1E
0Q
0O
0f
1d
0b
1`
0Z
1V
1=
0?
1@
0A
1B
0C
1R
00
1.
0,
1*
01
1-
1L
0_
1e
0c
1a
0S
1W
0g
0h
#765000
0!
0D
0E
#770000
1!
1D
1E
1O
0i
1f
0d
1b
0`
1X
0T
0<
1>
0@
1A
0B
1C
0;
0R
1g
02
10
0.
1,
0*
1/
0+
1P
0L
1_
0e
1c
0a
1Y
0U
0g
1h
0h
#775000
0!
0D
0E
#780000
1(
0%
1!
1J
0H
1D
1E
1Q
0O
0f
1d
0b
1`
1Z
0V
0=
1?
1@
0A
1B
0C
1R
00
1.
0,
1*
11
0-
1L
0_
1e
0c
1a
1S
0W
#785000
0!
0D
0E
#790000
1%
1!
1H
1D
1E
1[
1\
1O
1f
0d
1b
0`
0X
1T
1<
0>
0@
1A
0B
1C
0R
1g
10
0.
1,
0*
0/
1+
0P
0L
1_
0e
1c
0a
0Y
1U
0g
0[
1h
0h
0\
#795000
0!
0D
0E
#800000
1!
1D
1E
0Q
0O
0f
1d
0b
1`
0Z
1V
1=
0?
1@
0A
1B
0C
00
1.
0,
1*
01
1-
1L
0_
1e
0c
1a
0S
1W
#805000
0!
0D
0E
#810000
1!
1D
1E
1O
1f
0d
1b
0`
1X
0T
0<
1>
0@
1A
0B
1C
10
0.
1,
0*
1/
0+
1P
0L
1_
0e
1c
0a
1Y
0U
#815000
0!
0D
0E
#820000
1!
1D
1E
1Q
0O
0f
1d
0b
1`
1Z
0V
0=
1?
1@
0A
1B
0C
1R
00
1.
0,
1*
11
0-
1L
0_
1e
0c
1a
1S
0W
1[
1\
#825000
0!
0D
0E
#830000
0(
0%
1!
0J
0H
1D
1E
0R
0[
0\
1O
1f
0d
1b
0`
1]
0X
1T
1<
0>
1:
0@
1A
0B
1C
1[
10
0.
1,
0*
13
0/
1+
0P
0L
1_
0e
1c
0a
0Y
1U
1\
#835000
0!
0D
0E
#840000
1!
1D
1E
0Q
0O
0f
1d
0b
1`
0Z
1V
1=
0?
1@
0A
1B
0C
1R
00
1.
0,
1*
01
1-
1L
0_
1e
0c
1a
0S
1W
#845000
0!
0D
0E
#850000
1!
1D
1E
1O
1f
0d
1b
0`
1X
0T
0<
1>
0@
1A
0B
1C
0R
10
0.
1,
0*
1/
0+
1P
0L
1_
0e
1c
0a
1Y
0U
#855000
0!
0D
0E
#860000
1!
1D
1E
1Q
0O
0f
1d
0b
1`
1Z
0V
0=
1?
1@
0A
1B
0C
00
1.
0,
1*
11
0-
1L
0_
1e
0c
1a
1S
0W
#865000
0!
0D
0E
#870000
1!
1D
1E
1O
1f
0d
1b
0`
0X
1T
1<
0>
0@
1A
0B
1C
10
0.
1,
0*
0/
1+
0P
0L
1_
0e
1c
0a
0Y
1U
#875000
0!
0D
0E
#880000
1!
1D
1E
0Q
0O
0f
1d
0b
1`
0Z
1V
1=
0?
1@
0A
1B
0C
1R
00
1.
0,
1*
01
1-
1L
0_
1e
0c
1a
0S
1W
#885000
0!
0D
0E
#890000
1!
1D
1E
1O
1f
0d
1b
0`
1X
0T
0<
1>
0@
1A
0B
1C
0R
10
0.
1,
0*
1/
0+
1P
0L
1_
0e
1c
0a
1Y
0U
#895000
0!
0D
0E
#900000
1!
1D
1E
1Q
0O
0f
1d
0b
1`
1Z
0V
0=
1?
1@
0A
1B
0C
00
1.
0,
1*
11
0-
1L
0_
1e
0c
1a
1S
0W
#905000
0!
0D
0E
#910000
1!
1D
1E
1O
1f
0d
1b
0`
0X
1T
1<
0>
0@
1A
0B
1C
10
0.
1,
0*
0/
1+
0P
0L
1_
0e
1c
0a
0Y
1U
#915000
0!
0D
0E
#920000
1!
1D
1E
0Q
0O
0f
1d
0b
1`
0Z
1V
1=
0?
1@
0A
1B
0C
1R
00
1.
0,
1*
01
1-
1L
0_
1e
0c
1a
0S
1W
#925000
0!
0D
0E
#930000
1!
1D
1E
1O
1f
0d
1b
0`
1X
0T
0<
1>
0@
1A
0B
1C
0R
10
0.
1,
0*
1/
0+
1P
0L
1_
0e
1c
0a
1Y
0U
#935000
0!
0D
0E
#940000
1!
1D
1E
1Q
0O
0f
1d
0b
1`
1Z
0V
0=
1?
1@
0A
1B
0C
00
1.
0,
1*
11
0-
1L
0_
1e
0c
1a
1S
0W
#945000
0!
0D
0E
#950000
1!
1D
1E
1O
1f
0d
1b
0`
0X
1T
1<
0>
0@
1A
0B
1C
10
0.
1,
0*
0/
1+
0P
0L
1_
0e
1c
0a
0Y
1U
#955000
0!
0D
0E
#960000
1!
1D
1E
0Q
0O
0f
1d
0b
1`
0Z
1V
1=
0?
1@
0A
1B
0C
1R
00
1.
0,
1*
01
1-
1L
0_
1e
0c
1a
0S
1W
#965000
0!
0D
0E
#970000
1!
1D
1E
1O
1f
0d
1b
0`
1X
0T
0<
1>
0@
1A
0B
1C
0R
10
0.
1,
0*
1/
0+
1P
0L
1_
0e
1c
0a
1Y
0U
#975000
0!
0D
0E
#980000
1!
1D
1E
1Q
0O
0f
1d
0b
1`
1Z
0V
0=
1?
1@
0A
1B
0C
00
1.
0,
1*
11
0-
1L
0_
1e
0c
1a
1S
0W
#985000
0!
0D
0E
#990000
1!
1D
1E
1O
1f
0d
1b
0`
0X
1T
1<
0>
0@
1A
0B
1C
10
0.
1,
0*
0/
1+
0P
0L
1_
0e
1c
0a
0Y
1U
#995000
0!
0D
0E
